material Menu/background { technique{ pass{
  texture_unit{
    filtering bilinear
    texture textures/menu_background.png 0
  }
}}}

material Menu/background_wide { technique{ pass{
  texture_unit{
    filtering bilinear
    texture textures/menu_background_wide.png 0
  }
}}}

material Menu/foreground { technique{ pass{
  scene_blend alpha_blend
  texture_unit{
    colour_op_ex source1 src_manual src_current  0.0  0.0  0.0
    alpha_op_ex source1 src_manual src_current  0.37
  }
}}}

material Menu/menu { technique{ pass{
  scene_blend alpha_blend
  texture_unit{
    filtering bilinear
    texture textures/menu.png 0
  }
}}}

material Menu/transparent { technique{ pass{
  scene_blend alpha_blend
  texture_unit{
    colour_op_ex source1 src_manual src_current  0.0  0.0  0.0
    alpha_op_ex source1 src_manual src_current  0.0
  }
}}}

material Menu/dialog_background { technique{ pass{
  scene_blend alpha_blend
  texture_unit{
    colour_op_ex source1 src_manual src_current  0.07  0.07  0.07
    alpha_op_ex source1 src_manual src_current  0.92
  }
}}}
